Midterm
…
## [1] "low_cost"  "high_cost" "high_cost" "low_cost"  "high_cost" "high_cost"

Add Input Variables

## # A tibble: 131,478 x 11
##      age sex   raceethn provider moa   mod   admtype campus er_mode   los target
##    <dbl> <fct> <fct>    <fct>    <fct> <fct> <fct>   <fct>  <fct>   <dbl> <fct> 
##  1     0 1     1        7214     1     1     4       0      9           2 low_c~
##  2    76 2     1        7214     1     1     3       0      9           1 high_~
##  3    50 2     1        7214     12    1     2       0      9           3 high_~
##  4     0 1     7        7214     1     1     4       0      9           4 low_c~
##  5     0 1     1        7214     12    1     4       0      9          35 high_~
##  6     0 2     9        7214     12    1     4       0      9          17 high_~
##  7     0 2     1        7214     1     1     4       0      9           2 low_c~
##  8     0 2     1        7214     1     1     4       0      9           3 low_c~
##  9    70 2     1        7214     1     1     2       0      9           2 high_~
## 10    25 2     1        7214     12    1     2       0      9          12 high_~
## # ... with 131,468 more rows
…
## [1] "\ntrControl = trainControl(method = \"cv\",number = 5)\n\ntuneGrid = expand.grid(nIter = 2:4)\n\napproach3 <- train(target~., data=df_train, method = \"LogitBoost\", trControl = trControl, tuneGrid = tuneGrid)\nplot(approach3)"

Question 4: Plot the comparison of the models

Question 5: Choosing a final selection model and test for accuracy

## [1] "\nmodel <- #winning model...\npred <- predict(model, df_test)\ncm <- confusionMatrix(data = pred, reference = df_test$target, positive = 'low_tot')\ncm$overall[1]"

Question 6: Create another “target” variable - Step 1

## [1] "low_los"  "low_los"  "high_los" "high_los" "high_los" "high_los"

Add Input Variables

## # A tibble: 131,478 x 10
##      age sex   raceethn provider moa   mod   admtype campus er_mode target  
##    <dbl> <fct> <fct>    <fct>    <fct> <fct> <fct>   <fct>  <fct>   <fct>   
##  1     0 1     1        7214     1     1     4       0      9       low_los 
##  2    76 2     1        7214     1     1     3       0      9       low_los 
##  3    50 2     1        7214     12    1     2       0      9       high_los
##  4     0 1     7        7214     1     1     4       0      9       high_los
##  5     0 1     1        7214     12    1     4       0      9       high_los
##  6     0 2     9        7214     12    1     4       0      9       high_los
##  7     0 2     1        7214     1     1     4       0      9       low_los 
##  8     0 2     1        7214     1     1     4       0      9       high_los
##  9    70 2     1        7214     1     1     2       0      9       low_los 
## 10    25 2     1        7214     12    1     2       0      9       high_los
## # ... with 131,468 more rows
…
